{
    "misc": {
        "step_x": "Étape [number]",
        "step_x_description": "Étape [number] : [description]",
        "option_x_description": "Option [number] : [description]",
        "overview": {
            "title": "Ce que vous pouvez faire avec F-Droid",
            "tutorial_x_title": "Tutoriel [number] : [title]"
        }
    },
    "add_repo": {
        "overview": {
            "title": "Obtenir plus de contenu."
        },
        "title": "Comment ajouter un dépôt à F-Droid",
        "open_repo_link": {
            "short_summary": "Ouvrir le lien du dépôt",
            "title": "Ouvrir le lien du dépôt sur votre appareil",
            "steps": {
                "step_1": "Téléchargez et installez l’application F-Droid sur votre appareil Android.",
                "step_2": "Cliquez sur le lien et ouvrez-le dans un navigateur Web sur votre appareil.",
                "step_3": "Lorsque le lien est ouvert, appuyez sur le bouton « Ajouter à F-Droid ».",
                "step_7": "Appuyez sur un dépôt pour afficher son contenu.",
                "step_8": "Sélectionnez les applications que vous souhaitez utiliser et installez-les sur votre appareil."
            }
        },
        "scan_qr_code": {
            "short_summary": "Scanner un code QR",
            "title": "Scanner un code QR affiché sur un autre appareil",
            "steps": {
                "step_4": "Dans F-Droid, appuyez sur « Paramètres ». Puis sous « Mes applications », sélectionnez « Dépôts ».",
                "step_5": "Sur l’écran des Dépôts, appuyez sur l’icône « + » situé dans le coin supérieur."
            }
        }
    },
    "swap": {
        "overview": {
            "title": "Envoyez et recevez des applications même hors ligne."
        },
        "title": "Comment envoyer et recevoir des applications lorsque vous êtes hors ligne",
        "intro": "Aucun accès à Internet ? Pas de problème. Vous pouvez télécharger des applications depuis les appareils des personnes qui vous entourent.",
        "step_1": "Ouvrez F-Droid. Appuyez sur « Autour » dans la barre d'icônes en bas de votre écran.",
        "step_4": "Une fois connecté, choisissez les applications que vous souhaitez partager avec votre contact.",
        "step_5": "Appuyez sur le bouton « —> ».",
        "step_6": "Une personne sera invitée à confirmer la demande de connexion.",
        "step_7": "Appuyez sur le bouton « Installer » situé à côté des applications que vous souhaitez installer."
    },
    "create_repo": {
        "overview": {
            "title": "Ajoutez vos propres applications et fichiers."
        },
        "title": "Comment créer un dépôt",
        "download_and_install": {
            "title": "Téléchargez et installez Repomaker pour commencer la création",
            "steps": {
                "step_1": "Téléchargez et installez l’application web Repomaker sur votre ordinateur de bureau.",
                "step_2": "Lancez l’application Web Repomaker. Connectez-vous ou Inscrivez-vous pour commencer.",
                "step_3": "Créez un nouveau dépôt et nommez-le en conséquence.",
                "step_6": "Vos applications seront affichées dans votre vue des contenus du dépôt."
            }
        },
        "customize_repo": {
            "title": "Personnalisez votre dépôt",
            "steps": {
                "step_1": "Cliquez sur un élément pour consulter ses détails.",
                "step_2": "Cliquez sur « Modifier ».",
                "step_4": "Toutes vos modifications sont enregistrées automatiquement."
            }
        },
        "share_repo": {
            "title": "Personnalisez votre dépôt"
        },
        "update_repo": {
            "title": "Mettre à jour votre dépôt",
            "steps": {
                "step_2": "Vous pouvez également ouvrir un seul élément pour ajouter une nouvelle version. Sélectionnez Modifier.",
                "step_4": "Ensuite, ajoutez une nouvelle version dans la section « Historique des versions »."
            }
        }
    }
}
