{
    "index": {
        "download_fdroid": "تنزيل أف-درويد",
        "introduction": "أف-درويد فهرس لتطبيقات البرمجيات الحرة ومفتوحة المصدر لمنصة أندرويد. يسمح لك التطبيق إكتشاف وتثبيت وتتبع التحديثات على جهازك.",
        "gpg_signature": "توقيع بي جي بي",
        "screenshot": "لقطة شاشة لـ أف-درويد على نظام الأندرويد",
        "title": "ما هو أف-درويد ؟"
    },
    "navigation": {
        "about": "عن المشروع",
        "documentation": "الوثائق",
        "forum": "المنتدى",
        "browse": "تَصَفّح",
        "contribute": "المساهمة",
        "repomaker": "مُطوِّر المستودعات",
        "tutorials": "الدروس",
        "news": "الأخبار",
        "issues": "المشاكل"
    },
    "package": {
        "website": "الموقع",
        "permissions": "التصريحات",
        "donate": "تبرع",
        "liberapay": "ليبر باي",
        "technical_info": "بيانات تقنية",
        "build_metadata": "البيانات الوصفية للبِناء",
        "author": "المالك",
        "new_in_version": "جديد في إصداره الـ  [latest_version]",
        "version_info": "<b>الإصدار [package_version]</b> أضيف في ([package_version_code])-[package_added_date]",
        "changelog": "سجل التغييرات",
        "issue_tracker": "مقتفي المشاكل",
        "signed_by_developer": "هو مُطوَّر و مُوَقَّع من قبل المُطوِّر الأصلي.",
        "gpg_signature": "توقيع بي جي بي",
        "signed_by_fdroid": "مصمّمٌ و مُوقّع عليه من طرف أف-درويد و مضمون ليتوافق مع <a href=\"[source_code_url]\">حزمة tarball المصدرية</a>.",
        "packages": "الحزم",
        "download": "نزِّل [file_extension]",
        "license": "الرخصة",
        "minimum_android_version": "يتطلب هذا الإصدار نظام أندرويد [android_version] أو أحدث.",
        "suggest_downloading_via_fdroid": "على الرغم من تَوفّرحُزم APK أدناه لاعطيائك الخيار إلّا أنه يجب أن تكون على علم بأن عملية التثبيت بهذه الطريقة لن تمكِّنك من تلقي إخطارات التحديث وأنها وسيلة أقل أمنا للتنزيل. ننصحك بتثبيت تطبيق أف-درويد واستخدامه.",
        "source_code": "الشيفرة المصدرية",
        "flattr": "فلاتر",
        "anti_features": "الميزات المضادة",
        "anti_features_warning": "لدى هذا التطبيق ميزات قد لا تعجبك"
    },
    "sidebars": {
        "latest_packages": {
            "heading": "أحدث التطبيقات"
        },
        "news": {
            "heading": "الأخبار"
        },
        "search": {
            "noscript": "تتطلب هذه الصفحة تفعيل جافا سكريبت في المتصفح الخاص بك",
            "search": "البحث",
            "heading": "إبحث عن تطبيقات"
        },
        "donate": {
            "bank_transfer_name": "الإسم",
            "bitcoin_alt": "تبرع بالبيتكوين",
            "powered_by_donations": "إنَّ أف-درويد مدعوم بتبرعاتكم !",
            "via_bank_transfer": "تحويل بنكي",
            "litecoin_alt": "التبرع عبر اللايت كُوين",
            "flattr_alt": "تبرع عبر فلاتر",
            "paypal_alt": "تبرع عبر بايبال",
            "liberapay_alt": "تبرع عبر Liberapay",
            "heading": "تبرع",
            "hellotux": "👕 أقمصة 👕 مِن",
            "hellotux_alt": "HELLOTUX",
            "hellotux_donation": "وسوف يتلقى F-Droid 3 يورو لكل قميص يباع."
        },
        "last_updated": {
            "heading": "آخر تحديث"
        }
    }
}
