{
    "index": {
        "download_fdroid": "Hämta F-Droid",
        "introduction": "F-Droid är en installerbar katalog av FOSS (Mjukvara med fri och öppen källkod) applikationer för Android-plattformen. Klienten gör det enkelt att bläddra, installera och hålla koll på uppdateringar till din enhet.",
        "gpg_signature": "PGP-signatur",
        "screenshot": "F-Droid Android app-skärmdump",
        "title": "Vad är F-Droid?"
    },
    "navigation": {
        "about": "Om",
        "contribute": "Bidra",
        "forum": "Forum",
        "browse": "Bläddra",
        "documentation": "Dokument",
        "repomaker": "Förrådsskapare",
        "tutorials": "Handledningar",
        "news": "Nyheter",
        "issues": "Problem"
    },
    "package": {
        "website": "Webbsida",
        "permissions": "Behörigheter",
        "donate": "Donera",
        "liberapay": "Liberapay",
        "technical_info": "Teknisk info",
        "build_metadata": "Bygg metadata",
        "author": "Författare",
        "new_in_version": "Nytt i version [latest_version]",
        "version_info": "<b>Version [package_version]</b> ([package_version_code]) - Tillagd [package_added_date]",
        "changelog": "Ändringslogg",
        "issue_tracker": "Felbevakare",
        "signed_by_developer": "Den är byggd och signerad av originalutvecklaren.",
        "gpg_signature": "PGP-signatur",
        "signed_by_fdroid": "Den är byggd och signerad av F-Droid, vilket garanterat motsvarar <a href=\"[source_code_url]\">\ndet här källkodsarkivet (tarball)</a>",
        "packages": "Paket",
        "download": "Ladda ner [file_extension]",
        "license": "Licens",
        "minimum_android_version": "Den här versionen kräver Android [android_version] eller senare.",
        "suggest_downloading_via_fdroid": "Nedan finns APK-hämtningar tillgängliga, men du bör vara medveten att om att installering genom detta sätt förhindrar dig från att ta emot uppdateringsaviseringar och är en mindre säker väg för hämtning. Vi rekommenderar att du installerar och använder F-Droid istället.",
        "source_code": "Källkod",
        "flattr": "Flattr"
    },
    "sidebars": {
        "latest_packages": {
            "heading": "Senaste appar"
        },
        "news": {
            "heading": "Nyheter"
        },
        "search": {
            "noscript": "Kräver att Javascript är aktiverat",
            "search": "Sök",
            "heading": "Hitta appar"
        },
        "donate": {
            "bank_transfer_name": "Namn",
            "bitcoin_alt": "Donera via Bitcoin",
            "powered_by_donations": "F-Droid drivs av era donationer!",
            "via_bank_transfer": "Banköverföring",
            "litecoin_alt": "Donera via Litecoin",
            "flattr_alt": "Donera via Flattr",
            "paypal_alt": "Donera via PayPal",
            "liberapay_alt": "Donera via Liberapay",
            "heading": "Donera",
            "hellotux": "👕 T-shirtar 👕 från",
            "hellotux_alt": "HELLOTUX",
            "hellotux_donation": "F-droid kommer att ta emot 3 € för varje T-shirt som säljs."
        },
        "last_updated": {
            "heading": "Senast uppdaterad"
        }
    }
}
